<svg width="20" height="18" viewBox="0 0 20 18" fill="none" xmlns="http://www.w3.org/2000/svg">
<path fill-rule="evenodd" clip-rule="evenodd" d="M10.4469 15.9461L17.1562 9.00018L10.4469 2.05424C9.86344 1.50644 9.85131 0.958646 10.4105 0.410848C10.9696 -0.136949 11.5166 -0.136949 12.0515 0.410848L19.6355 8.17848C19.8787 8.37781 20 8.65171 20 9.00018C20 9.34865 19.8787 9.62255 19.6355 9.8214L12.0515 17.5895C11.5166 18.1368 10.9696 18.1368 10.4105 17.5895C9.8513 17.0417 9.86344 16.4939 10.4469 15.9461Z" fill="white"/>
<path d="M0 9.1C0 8.49249 0.492487 8 1.1 8H17.9C18.5075 8 19 8.49249 19 9.1C19 9.70751 18.5075 10.2 17.9 10.2H1.1C0.492487 10.2 0 9.70751 0 9.1Z" fill="white"/>
</svg>
